…
``` r
### look for signals in taxonomy
amended.filt.df %>% 
  select(ASV, sum_var, num_sites, mean_var, Phylum, Genus, Species, closest_tax) %>% # select cols specific to ASVs across sites
  distinct() %>% # dereplicate rows
  arrange(-sum_var) # sort by highest sum variance 
```

    ## # A tibble: 48 × 8
    ## # Groups:   ASV [48]
    ##    ASV     sum_var num_sites mean_var Phylum           Genus Species closest_tax
    ##    <chr>     <dbl>     <int>    <dbl> <chr>            <chr> <chr>   <chr>      
    ##  1 ASV75     1.34          3    0.446 Mortierellomyco… Mort… indohii Mortierell…
    ##  2 ASV59     1.17          6    0.195 Ascomycota       Botr… atrogr… Botryotric…
    ##  3 ASV80     1.12          6    0.187 Ascomycota       Botr… spirot… Botryotric…
    ##  4 ASV148    1.02          7    0.146 Ascomycota       <NA>  <NA>    Fam. Pseud…
    ##  5 ASV179    0.956         7    0.137 Ascomycota       Scop… cordiae Scopulario…
    ##  6 ASV93     0.936         8    0.117 Monoblepharomyc… <NA>  <NA>    Fam. Sanch…
    ##  7 ASV161    0.909         5    0.182 Ascomycota       Kern… column… Kernia col…
    ##  8 ASV630    0.875         2    0.437 Ascomycota       Petr… musisp… Petriella …
    ##  9 ASV158    0.793         6    0.132 Ascomycota       Kern… column… Kernia col…
    ## 10 ASV1198   0.774         2    0.387 Ascomycota       Ward… inflat… Wardomyces…
    ## # ℹ 38 more rows
…
